{
  "formatVersion": 1,
  "database": {
    "version": 5,
    "identityHash": "b2015cd8bc68ba0a77910e0c7e793bc2",
    "entities": [
      {
        "tableName": "accounts",
        "createSql": "CREATE TABLE IF NOT EXISTS `${TABLE_NAME}` (`id` INTEGER NOT NULL, `SID` TEXT NOT NULL, `Auth` TEXT NOT NULL, `login` TEXT NOT NULL, `serverInstance` TEXT NOT NULL, PRIMARY KEY(`id`))",
        "fields": [
          {
            "fieldPath": "id",
            "columnName": "id",
            "affinity": "INTEGER",
            "notNull": true
          },
          {
            "fieldPath": "SID",
            "columnName": "SID",
            "affinity": "TEXT",
            "notNull": true
          },
          {
            "fieldPath": "Auth",
            "columnName": "Auth",
            "affinity": "TEXT",
            "notNull": true
          },
          {
            "fieldPath": "login",
            "columnName": "login",
            "affinity": "TEXT",
            "notNull": true
          },
          {
            "fieldPath": "serverInstance",
            "columnName": "serverInstance",
            "affinity": "TEXT",
            "notNull": true
          }
        ],
        "primaryKey": {
          "columnNames": [
            "id"
          ],
          "autoGenerate": false
        },
        "indices": [],
        "foreignKeys": []
      },
      {
        "tableName": "articles",
        "createSql": "CREATE TABLE IF NOT EXISTS `${TABLE_NAME}` (`id` TEXT NOT NULL, `title` TEXT NOT NULL, `href` TEXT NOT NULL, `categories` TEXT NOT NULL, `author` TEXT NOT NULL, `content` TEXT NOT NULL, `streamId` TEXT NOT NULL, `readStatus` TEXT NOT NULL, `crawled` INTEGER NOT NULL, `published` INTEGER NOT NULL, PRIMARY KEY(`id`))",
        "fields": [
          {
            "fieldPath": "id",
            "columnName": "id",
            "affinity": "TEXT",
            "notNull": true
          },
          {
            "fieldPath": "title",
            "columnName": "title",
            "affinity": "TEXT",
            "notNull": true
          },
          {
            "fieldPath": "href",
            "columnName": "href",
            "affinity": "TEXT",
            "notNull": true
          },
          {
            "fieldPath": "categories",
            "columnName": "categories",
            "affinity": "TEXT",
            "notNull": true
          },
          {
            "fieldPath": "author",
            "columnName": "author",
            "affinity": "TEXT",
            "notNull": true
          },
          {
            "fieldPath": "content",
            "columnName": "content",
            "affinity": "TEXT",
            "notNull": true
          },
          {
            "fieldPath": "streamId",
            "columnName": "streamId",
            "affinity": "TEXT",
            "notNull": true
          },
          {
            "fieldPath": "readStatus",
            "columnName": "readStatus",
            "affinity": "TEXT",
            "notNull": true
          },
          {
            "fieldPath": "crawled",
            "columnName": "crawled",
            "affinity": "INTEGER",
            "notNull": true
          },
          {
            "fieldPath": "published",
            "columnName": "published",
            "affinity": "INTEGER",
            "notNull": true
          }
        ],
        "primaryKey": {
          "columnNames": [
            "id"
          ],
          "autoGenerate": false
        },
        "indices": [],
        "foreignKeys": []
      },
      {
        "tableName": "subscriptions",
        "createSql": "CREATE TABLE IF NOT EXISTS `${TABLE_NAME}` (`imageBitmap` BLOB, `id` TEXT NOT NULL, `title` TEXT NOT NULL, `iconUrl` TEXT NOT NULL, `unreadCount` INTEGER NOT NULL, `newestArticleDate` INTEGER NOT NULL, PRIMARY KEY(`id`))",
        "fields": [
          {
            "fieldPath": "imageBitmap",
            "columnName": "imageBitmap",
            "affinity": "BLOB",
            "notNull": false
          },
          {
            "fieldPath": "id",
            "columnName": "id",
            "affinity": "TEXT",
            "notNull": true
          },
          {
            "fieldPath": "title",
            "columnName": "title",
            "affinity": "TEXT",
            "notNull": true
          },
          {
            "fieldPath": "iconUrl",
            "columnName": "iconUrl",
            "affinity": "TEXT",
            "notNull": true
          },
          {
            "fieldPath": "unreadCount",
            "columnName": "unreadCount",
            "affinity": "INTEGER",
            "notNull": true
          },
          {
            "fieldPath": "newestArticleDate",
            "columnName": "newestArticleDate",
            "affinity": "INTEGER",
            "notNull": true
          }
        ],
        "primaryKey": {
          "columnNames": [
            "id"
          ],
          "autoGenerate": false
        },
        "indices": [],
        "foreignKeys": []
      }
    ],
    "views": [],
    "setupQueries": [
      "CREATE TABLE IF NOT EXISTS room_master_table (id INTEGER PRIMARY KEY,identity_hash TEXT)",
      "INSERT OR REPLACE INTO room_master_table (id,identity_hash) VALUES(42, \"b2015cd8bc68ba0a77910e0c7e793bc2\")"
    ]
  }
}